\beamer@sectionintoc {1}{Introduction}{3}{0}{1}
\beamer@subsectionintoc {1}{1}{Project Description}{3}{0}{1}
\beamer@subsectionintoc {1}{2}{App. Description}{5}{0}{1}
\beamer@sectionintoc {2}{The Data Sets}{7}{0}{2}
\beamer@subsectionintoc {2}{1}{Users Data}{7}{0}{2}
\beamer@sectionintoc {3}{Exploratory Data Analysis}{12}{0}{3}
