\relax 
\providecommand\hyper@newdestlabel[2]{}
\providecommand\HyperFirstAtBeginDocument{\AtBeginDocument}
\HyperFirstAtBeginDocument{\ifx\hyper@anchor\@undefined
\global\let\oldcontentsline\contentsline
\gdef\contentsline#1#2#3#4{\oldcontentsline{#1}{#2}{#3}}
\global\let\oldnewlabel\newlabel
\gdef\newlabel#1#2{\newlabelxx{#1}#2}
\gdef\newlabelxx#1#2#3#4#5#6{\oldnewlabel{#1}{{#2}{#3}}}
\AtEndDocument{\ifx\hyper@anchor\@undefined
\let\contentsline\oldcontentsline
\let\newlabel\oldnewlabel
\fi}
\fi}
\global\let\hyper@last\relax 
\gdef\HyperFirstAtBeginDocument#1{#1}
\providecommand\HyField@AuxAddToFields[1]{}
\providecommand\HyField@AuxAddToCoFields[2]{}
\@writefile{nav}{\headcommand {\slideentry {0}{0}{1}{1/1}{}{0}}}
\@writefile{nav}{\headcommand {\beamer@framepages {1}{1}}}
\@writefile{nav}{\headcommand {\slideentry {0}{0}{2}{2/2}{}{0}}}
\@writefile{nav}{\headcommand {\beamer@framepages {2}{2}}}
\@writefile{toc}{\beamer@sectionintoc {1}{Introduction}{3}{0}{1}}
\@writefile{nav}{\headcommand {\beamer@sectionpages {1}{2}}}
\@writefile{nav}{\headcommand {\beamer@subsectionpages {1}{2}}}
\@writefile{nav}{\headcommand {\sectionentry {1}{Introduction}{3}{Introduction}{0}}}
\@writefile{toc}{\beamer@subsectionintoc {1}{1}{Project Description}{3}{0}{1}}
\@writefile{nav}{\headcommand {\beamer@subsectionpages {3}{2}}}
\@writefile{nav}{\headcommand {\beamer@subsectionentry {0}{1}{1}{3}{Project Description}}}
\@writefile{nav}{\headcommand {\slideentry {1}{1}{1}{3/3}{Project Description}{0}}}
\@writefile{nav}{\headcommand {\beamer@framepages {3}{3}}}
\@writefile{nav}{\headcommand {\slideentry {1}{1}{2}{4/4}{Project Description}{0}}}
\@writefile{nav}{\headcommand {\beamer@framepages {4}{4}}}
\@writefile{toc}{\beamer@subsectionintoc {1}{2}{App. Description}{5}{0}{1}}
\@writefile{nav}{\headcommand {\beamer@subsectionpages {3}{4}}}
\@writefile{nav}{\headcommand {\beamer@subsectionentry {0}{1}{2}{5}{App. Description}}}
\@writefile{nav}{\headcommand {\slideentry {1}{2}{1}{5/5}{App. Description}{0}}}
\@writefile{nav}{\headcommand {\beamer@framepages {5}{5}}}
\@writefile{nav}{\headcommand {\slideentry {1}{2}{2}{6/6}{App. Description}{0}}}
\@writefile{nav}{\headcommand {\beamer@framepages {6}{6}}}
\@writefile{toc}{\beamer@sectionintoc {2}{The Data Sets}{7}{0}{2}}
\@writefile{nav}{\headcommand {\beamer@sectionpages {3}{6}}}
\@writefile{nav}{\headcommand {\beamer@subsectionpages {5}{6}}}
\@writefile{nav}{\headcommand {\sectionentry {2}{The Data Sets}{7}{The Data Sets}{0}}}
\@writefile{toc}{\beamer@subsectionintoc {2}{1}{Users Data}{7}{0}{2}}
\@writefile{nav}{\headcommand {\beamer@subsectionpages {7}{6}}}
\@writefile{nav}{\headcommand {\beamer@subsectionentry {0}{2}{1}{7}{Users Data}}}
\@writefile{nav}{\headcommand {\slideentry {2}{1}{1}{7/7}{Users Data}{0}}}
\@writefile{nav}{\headcommand {\beamer@framepages {7}{7}}}
\newlabel{usersdata}{{1}{8}{Users Data}{Doc-Start}{}}
\@writefile{snm}{\beamer@slide {usersdata}{8}}
\@writefile{nav}{\headcommand {\slideentry {2}{1}{2}{8/8}{Users Data}{0}}}
\@writefile{nav}{\headcommand {\beamer@framepages {8}{8}}}
\@writefile{nav}{\headcommand {\slideentry {2}{1}{3}{9/9}{Users Data}{0}}}
\@writefile{nav}{\headcommand {\beamer@framepages {9}{9}}}
\newlabel{workoutdata}{{2}{10}{Users Data}{Doc-Start}{}}
\@writefile{snm}{\beamer@slide {workoutdata}{10}}
\@writefile{nav}{\headcommand {\slideentry {2}{1}{4}{10/10}{Users Data}{0}}}
\@writefile{nav}{\headcommand {\beamer@framepages {10}{10}}}
\@writefile{nav}{\headcommand {\slideentry {2}{1}{5}{11/11}{Users Data}{0}}}
\@writefile{nav}{\headcommand {\beamer@framepages {11}{11}}}
\@writefile{toc}{\beamer@sectionintoc {3}{Exploratory Data Analysis}{12}{0}{3}}
\@writefile{nav}{\headcommand {\beamer@sectionpages {7}{11}}}
\@writefile{nav}{\headcommand {\beamer@subsectionpages {7}{11}}}
\@writefile{nav}{\headcommand {\sectionentry {3}{Exploratory Data Analysis}{12}{Exploratory Data Analysis}{0}}}
\newlabel{GenderVSHeight}{{3}{12}{Exploratory Data Analysis}{Doc-Start}{}}
\@writefile{snm}{\beamer@slide {GenderVSHeight}{12}}
\@writefile{nav}{\headcommand {\slideentry {3}{0}{1}{12/12}{}{0}}}
\@writefile{nav}{\headcommand {\beamer@framepages {12}{12}}}
\newlabel{BMIvsGender}{{4}{13}{Exploratory Data Analysis}{Doc-Start}{}}
\@writefile{snm}{\beamer@slide {BMIvsGender}{13}}
\@writefile{nav}{\headcommand {\slideentry {3}{0}{2}{13/13}{}{0}}}
\@writefile{nav}{\headcommand {\beamer@framepages {13}{13}}}
\newlabel{BMIvsTrainingGoal}{{5}{14}{Exploratory Data Analysis}{Doc-Start}{}}
\@writefile{snm}{\beamer@slide {BMIvsTrainingGoal}{14}}
\@writefile{nav}{\headcommand {\slideentry {3}{0}{3}{14/14}{}{0}}}
\@writefile{nav}{\headcommand {\beamer@framepages {14}{14}}}
\@writefile{nav}{\headcommand {\beamer@partpages {1}{14}}}
\@writefile{nav}{\headcommand {\beamer@subsectionpages {12}{14}}}
\@writefile{nav}{\headcommand {\beamer@sectionpages {12}{14}}}
\@writefile{nav}{\headcommand {\beamer@documentpages {14}}}
\@writefile{nav}{\headcommand {\gdef \inserttotalframenumber {14}}}
