\relax 
\providecommand\hyper@newdestlabel[2]{}
\providecommand\HyperFirstAtBeginDocument{\AtBeginDocument}
\HyperFirstAtBeginDocument{\ifx\hyper@anchor\@undefined
\global\let\oldcontentsline\contentsline
\gdef\contentsline#1#2#3#4{\oldcontentsline{#1}{#2}{#3}}
\global\let\oldnewlabel\newlabel
\gdef\newlabel#1#2{\newlabelxx{#1}#2}
\gdef\newlabelxx#1#2#3#4#5#6{\oldnewlabel{#1}{{#2}{#3}}}
\AtEndDocument{\ifx\hyper@anchor\@undefined
\let\contentsline\oldcontentsline
\let\newlabel\oldnewlabel
\fi}
\fi}
\global\let\hyper@last\relax 
\gdef\HyperFirstAtBeginDocument#1{#1}
\providecommand\HyField@AuxAddToFields[1]{}
\providecommand\HyField@AuxAddToCoFields[2]{}
\@writefile{nav}{\headcommand {\slideentry {0}{0}{1}{1/1}{}{0}}}
\@writefile{nav}{\headcommand {\beamer@framepages {1}{1}}}
\@writefile{toc}{\beamer@sectionintoc {1}{Introduction}{2}{0}{1}}
\@writefile{nav}{\headcommand {\beamer@sectionpages {1}{1}}}
\@writefile{nav}{\headcommand {\beamer@subsectionpages {1}{1}}}
\@writefile{nav}{\headcommand {\sectionentry {1}{Introduction}{2}{Introduction}{0}}}
\@writefile{toc}{\beamer@subsectionintoc {1}{1}{Project Description}{2}{0}{1}}
\@writefile{nav}{\headcommand {\beamer@subsectionpages {2}{1}}}
\@writefile{nav}{\headcommand {\beamer@subsectionentry {0}{1}{1}{2}{Project Description}}}
\@writefile{nav}{\headcommand {\slideentry {1}{1}{1}{2/2}{Project Description}{0}}}
\@writefile{nav}{\headcommand {\beamer@framepages {2}{2}}}
\@writefile{toc}{\beamer@subsectionintoc {1}{2}{App. Description}{4}{0}{1}}
\@writefile{nav}{\headcommand {\beamer@subsectionpages {2}{3}}}
\@writefile{nav}{\headcommand {\beamer@subsectionentry {0}{1}{2}{4}{App. Description}}}
\@writefile{nav}{\headcommand {\slideentry {1}{2}{1}{4/4}{App. Description}{0}}}
\@writefile{nav}{\headcommand {\beamer@framepages {4}{4}}}
\@writefile{toc}{\beamer@sectionintoc {2}{The Data Sets}{5}{0}{2}}
\@writefile{nav}{\headcommand {\beamer@sectionpages {2}{4}}}
\@writefile{nav}{\headcommand {\beamer@subsectionpages {4}{4}}}
\@writefile{nav}{\headcommand {\sectionentry {2}{The Data Sets}{5}{The Data Sets}{0}}}
\@writefile{toc}{\beamer@subsectionintoc {2}{1}{Users Data}{5}{0}{2}}
\@writefile{nav}{\headcommand {\beamer@subsectionpages {5}{4}}}
\@writefile{nav}{\headcommand {\beamer@subsectionentry {0}{2}{1}{5}{Users Data}}}
\newlabel{usersdata}{{1}{5}{Users Data}{Doc-Start}{}}
\@writefile{snm}{\beamer@slide {usersdata}{5}}
\@writefile{nav}{\headcommand {\slideentry {2}{1}{1}{5/5}{Users Data}{0}}}
\@writefile{nav}{\headcommand {\beamer@framepages {5}{5}}}
\@writefile{nav}{\headcommand {\slideentry {2}{1}{2}{6/6}{Users Data}{0}}}
\@writefile{nav}{\headcommand {\beamer@framepages {6}{6}}}
\newlabel{workoutdata}{{2}{7}{Users Data}{Doc-Start}{}}
\@writefile{snm}{\beamer@slide {workoutdata}{7}}
\@writefile{nav}{\headcommand {\slideentry {2}{1}{3}{7/7}{Users Data}{0}}}
\@writefile{nav}{\headcommand {\beamer@framepages {7}{7}}}
\@writefile{nav}{\headcommand {\slideentry {2}{1}{4}{8/8}{Users Data}{0}}}
\@writefile{nav}{\headcommand {\beamer@framepages {8}{8}}}
\@writefile{toc}{\beamer@sectionintoc {3}{Cleaning The Data Set}{9}{0}{3}}
\@writefile{nav}{\headcommand {\beamer@sectionpages {5}{8}}}
\@writefile{nav}{\headcommand {\beamer@subsectionpages {5}{8}}}
\@writefile{nav}{\headcommand {\sectionentry {3}{Cleaning The Data Set}{9}{Cleaning The Data Set}{0}}}
\@writefile{nav}{\headcommand {\slideentry {3}{0}{1}{9/9}{}{0}}}
\@writefile{nav}{\headcommand {\beamer@framepages {9}{9}}}
\@writefile{nav}{\headcommand {\slideentry {3}{0}{2}{10/10}{}{0}}}
\@writefile{nav}{\headcommand {\beamer@framepages {10}{10}}}
\@writefile{nav}{\headcommand {\slideentry {3}{0}{3}{11/11}{}{0}}}
\@writefile{nav}{\headcommand {\beamer@framepages {11}{11}}}
\@writefile{toc}{\beamer@sectionintoc {4}{Exploratory Data Analysis}{12}{0}{4}}
\@writefile{nav}{\headcommand {\beamer@sectionpages {9}{11}}}
\@writefile{nav}{\headcommand {\beamer@subsectionpages {9}{11}}}
\@writefile{nav}{\headcommand {\sectionentry {4}{Exploratory Data Analysis}{12}{Exploratory Data Analysis}{0}}}
\@writefile{nav}{\headcommand {\slideentry {4}{0}{1}{12/12}{}{0}}}
\@writefile{nav}{\headcommand {\beamer@framepages {12}{12}}}
\@writefile{toc}{\beamer@sectionintoc {5}{User Data EDA}{13}{0}{5}}
\@writefile{nav}{\headcommand {\beamer@sectionpages {12}{12}}}
\@writefile{nav}{\headcommand {\beamer@subsectionpages {12}{12}}}
\@writefile{nav}{\headcommand {\sectionentry {5}{User Data EDA}{13}{User Data EDA}{0}}}
\newlabel{GenderVSHeight}{{3}{13}{User Data EDA}{Doc-Start}{}}
\@writefile{snm}{\beamer@slide {GenderVSHeight}{13}}
\@writefile{nav}{\headcommand {\slideentry {5}{0}{1}{13/13}{}{0}}}
\@writefile{nav}{\headcommand {\beamer@framepages {13}{13}}}
\newlabel{BMIvsGender}{{4}{14}{User Data EDA}{Doc-Start}{}}
\@writefile{snm}{\beamer@slide {BMIvsGender}{14}}
\@writefile{nav}{\headcommand {\slideentry {5}{0}{2}{14/14}{}{0}}}
\@writefile{nav}{\headcommand {\beamer@framepages {14}{14}}}
\newlabel{BMI_VS_AGE_For_Gender}{{5}{15}{User Data EDA}{Doc-Start}{}}
\@writefile{snm}{\beamer@slide {BMI_VS_AGE_For_Gender}{15}}
\@writefile{nav}{\headcommand {\slideentry {5}{0}{3}{15/15}{}{0}}}
\@writefile{nav}{\headcommand {\beamer@framepages {15}{15}}}
\newlabel{BMI_VS_AGE_For_Gender}{{6}{16}{User Data EDA}{Doc-Start}{}}
\@writefile{snm}{\beamer@slide {BMI_VS_AGE_For_Gender}{16}}
\@writefile{nav}{\headcommand {\slideentry {5}{0}{4}{16/16}{}{0}}}
\@writefile{nav}{\headcommand {\beamer@framepages {16}{16}}}
\newlabel{BMIvsTrainingGoal}{{7}{17}{User Data EDA}{Doc-Start}{}}
\@writefile{snm}{\beamer@slide {BMIvsTrainingGoal}{17}}
\@writefile{nav}{\headcommand {\slideentry {5}{0}{5}{17/17}{}{0}}}
\@writefile{nav}{\headcommand {\beamer@framepages {17}{17}}}
\@writefile{toc}{\beamer@sectionintoc {6}{Per User Workout data EDA}{18}{0}{6}}
\@writefile{nav}{\headcommand {\beamer@sectionpages {13}{17}}}
\@writefile{nav}{\headcommand {\beamer@subsectionpages {13}{17}}}
\@writefile{nav}{\headcommand {\sectionentry {6}{Per User Workout data EDA}{18}{Per User Workout data EDA}{0}}}
\@writefile{nav}{\headcommand {\slideentry {6}{0}{0}{18/18}{}{0}}}
\@writefile{nav}{\headcommand {\beamer@framepages {18}{18}}}
\newlabel{ConfusionMatrix60Days}{{8}{19}{User Data EDA}{Doc-Start}{}}
\@writefile{snm}{\beamer@slide {ConfusionMatrix60Days}{19}}
\@writefile{nav}{\headcommand {\slideentry {6}{0}{1}{19/19}{}{0}}}
\@writefile{nav}{\headcommand {\beamer@framepages {19}{19}}}
\@writefile{toc}{\beamer@sectionintoc {7}{Per Cluster Workout data EDA}{20}{0}{7}}
\@writefile{nav}{\headcommand {\beamer@sectionpages {13}{19}}}
\@writefile{nav}{\headcommand {\beamer@subsectionpages {13}{19}}}
\@writefile{nav}{\headcommand {\sectionentry {7}{Per Cluster Workout data EDA}{20}{Per Cluster Workout data EDA}{0}}}
\@writefile{nav}{\headcommand {\slideentry {7}{0}{0}{20/20}{}{0}}}
\@writefile{nav}{\headcommand {\beamer@framepages {20}{20}}}
\newlabel{BMIvsTrainingGoal}{{9}{21}{User Data EDA}{Doc-Start}{}}
\@writefile{snm}{\beamer@slide {BMIvsTrainingGoal}{21}}
\@writefile{nav}{\headcommand {\slideentry {7}{0}{1}{21/21}{}{0}}}
\@writefile{nav}{\headcommand {\beamer@framepages {21}{21}}}
\newlabel{BMIvsTrainingGoal}{{10}{22}{User Data EDA}{Doc-Start}{}}
\@writefile{snm}{\beamer@slide {BMIvsTrainingGoal}{22}}
\@writefile{nav}{\headcommand {\slideentry {7}{0}{2}{22/22}{}{0}}}
\@writefile{nav}{\headcommand {\beamer@framepages {22}{22}}}
\@writefile{toc}{\beamer@sectionintoc {8}{Workout amount clustering}{23}{0}{8}}
\@writefile{nav}{\headcommand {\beamer@sectionpages {13}{22}}}
\@writefile{nav}{\headcommand {\beamer@subsectionpages {13}{22}}}
\@writefile{nav}{\headcommand {\sectionentry {8}{Workout amount clustering}{23}{Workout amount clustering}{0}}}
\@writefile{nav}{\headcommand {\slideentry {8}{0}{0}{23/23}{}{0}}}
\@writefile{nav}{\headcommand {\beamer@framepages {23}{23}}}
\@writefile{toc}{\beamer@subsectionintoc {8}{1}{10 to 30 Workouts}{24}{0}{8}}
\@writefile{nav}{\headcommand {\beamer@subsectionpages {13}{23}}}
\@writefile{nav}{\headcommand {\beamer@subsectionentry {0}{8}{1}{24}{10 to 30 Workouts}}}
\newlabel{BMIvsTrainingGoal}{{11}{24}{10 to 30 Workouts}{Doc-Start}{}}
\@writefile{snm}{\beamer@slide {BMIvsTrainingGoal}{24}}
\@writefile{nav}{\headcommand {\slideentry {8}{1}{0}{24/24}{}{0}}}
\@writefile{nav}{\headcommand {\beamer@framepages {24}{24}}}
\newlabel{BMIvsTrainingGoal}{{12}{25}{User Data EDA}{Doc-Start}{}}
\@writefile{snm}{\beamer@slide {BMIvsTrainingGoal}{25}}
\@writefile{nav}{\headcommand {\slideentry {8}{1}{1}{25/25}{}{0}}}
\@writefile{nav}{\headcommand {\beamer@framepages {25}{25}}}
\@writefile{toc}{\beamer@subsectionintoc {8}{2}{31 to 50 Workouts}{26}{0}{8}}
\@writefile{nav}{\headcommand {\beamer@subsectionpages {13}{25}}}
\@writefile{nav}{\headcommand {\beamer@subsectionentry {0}{8}{2}{26}{31 to 50 Workouts}}}
\newlabel{BMIvsTrainingGoal}{{13}{26}{31 to 50 Workouts}{Doc-Start}{}}
\@writefile{snm}{\beamer@slide {BMIvsTrainingGoal}{26}}
\@writefile{nav}{\headcommand {\slideentry {8}{2}{0}{26/26}{}{0}}}
\@writefile{nav}{\headcommand {\beamer@framepages {26}{26}}}
\newlabel{BMIvsTrainingGoal}{{14}{27}{User Data EDA}{Doc-Start}{}}
\@writefile{snm}{\beamer@slide {BMIvsTrainingGoal}{27}}
\@writefile{nav}{\headcommand {\slideentry {8}{2}{1}{27/27}{}{0}}}
\@writefile{nav}{\headcommand {\beamer@framepages {27}{27}}}
\@writefile{toc}{\beamer@subsectionintoc {8}{3}{51 to 100 Workouts}{28}{0}{8}}
\@writefile{nav}{\headcommand {\beamer@subsectionpages {13}{27}}}
\@writefile{nav}{\headcommand {\beamer@subsectionentry {0}{8}{3}{28}{51 to 100 Workouts}}}
\newlabel{BMIvsTrainingGoal}{{15}{28}{51 to 100 Workouts}{Doc-Start}{}}
\@writefile{snm}{\beamer@slide {BMIvsTrainingGoal}{28}}
\@writefile{nav}{\headcommand {\slideentry {8}{3}{0}{28/28}{}{0}}}
\@writefile{nav}{\headcommand {\beamer@framepages {28}{28}}}
\newlabel{BMIvsTrainingGoal}{{16}{29}{User Data EDA}{Doc-Start}{}}
\@writefile{snm}{\beamer@slide {BMIvsTrainingGoal}{29}}
\@writefile{nav}{\headcommand {\slideentry {8}{3}{1}{29/29}{}{0}}}
\@writefile{nav}{\headcommand {\beamer@framepages {29}{29}}}
\@writefile{toc}{\beamer@subsectionintoc {8}{4}{100+ Workouts}{30}{0}{8}}
\@writefile{nav}{\headcommand {\beamer@subsectionpages {13}{29}}}
\@writefile{nav}{\headcommand {\beamer@subsectionentry {0}{8}{4}{30}{100+ Workouts}}}
\newlabel{BMIvsTrainingGoal}{{17}{30}{100+ Workouts}{Doc-Start}{}}
\@writefile{snm}{\beamer@slide {BMIvsTrainingGoal}{30}}
\@writefile{nav}{\headcommand {\slideentry {8}{4}{0}{30/30}{}{0}}}
\@writefile{nav}{\headcommand {\beamer@framepages {30}{30}}}
\newlabel{BMIvsTrainingGoal}{{18}{31}{User Data EDA}{Doc-Start}{}}
\@writefile{snm}{\beamer@slide {BMIvsTrainingGoal}{31}}
\@writefile{nav}{\headcommand {\slideentry {8}{4}{1}{31/31}{}{0}}}
\@writefile{nav}{\headcommand {\beamer@framepages {31}{31}}}
\@writefile{toc}{\beamer@sectionintoc {9}{Conclusions}{32}{0}{9}}
\@writefile{nav}{\headcommand {\beamer@sectionpages {13}{31}}}
\@writefile{nav}{\headcommand {\beamer@subsectionpages {13}{31}}}
\@writefile{nav}{\headcommand {\sectionentry {9}{Conclusions}{32}{Conclusions}{0}}}
\@writefile{nav}{\headcommand {\slideentry {9}{0}{0}{32/32}{}{0}}}
\@writefile{nav}{\headcommand {\beamer@framepages {32}{32}}}
\@writefile{nav}{\headcommand {\slideentry {9}{0}{1}{33/33}{}{0}}}
\@writefile{nav}{\headcommand {\beamer@framepages {33}{33}}}
\@writefile{toc}{\beamer@sectionintoc {10}{Future Work}{34}{0}{10}}
\@writefile{nav}{\headcommand {\beamer@sectionpages {13}{33}}}
\@writefile{nav}{\headcommand {\beamer@subsectionpages {13}{33}}}
\@writefile{nav}{\headcommand {\sectionentry {10}{Future Work}{34}{Future Work}{0}}}
\@writefile{nav}{\headcommand {\slideentry {10}{0}{0}{34/34}{}{0}}}
\@writefile{nav}{\headcommand {\beamer@framepages {34}{34}}}
\@writefile{nav}{\headcommand {\slideentry {10}{0}{1}{35/35}{}{0}}}
\@writefile{nav}{\headcommand {\beamer@framepages {35}{35}}}
\@writefile{nav}{\headcommand {\beamer@partpages {1}{35}}}
\@writefile{nav}{\headcommand {\beamer@subsectionpages {13}{35}}}
\@writefile{nav}{\headcommand {\beamer@sectionpages {13}{35}}}
\@writefile{nav}{\headcommand {\beamer@documentpages {35}}}
\@writefile{nav}{\headcommand {\gdef \inserttotalframenumber {34}}}
